<?xml version="1.0" encoding="UTF-8" standalone="no"?>
<svg
   xmlns:dc="http://purl.org/dc/elements/1.1/"
   xmlns:cc="http://creativecommons.org/ns#"
   xmlns:rdf="http://www.w3.org/1999/02/22-rdf-syntax-ns#"
   xmlns:svg="http://www.w3.org/2000/svg"
   xmlns="http://www.w3.org/2000/svg"
   xmlns:sodipodi="http://sodipodi.sourceforge.net/DTD/sodipodi-0.dtd"
   xmlns:inkscape="http://www.inkscape.org/namespaces/inkscape"
   version="1.0"
   width="150"
   height="150"
   id="svg2"
   sodipodi:version="0.32"
   inkscape:version="0.48.1 r9760"
   sodipodi:docname="under_construction.svg"
   inkscape:output_extension="org.inkscape.output.svg.inkscape">
  <metadata
     id="metadata48">
    <rdf:RDF>
      <cc:Work
         rdf:about="">
        <dc:format>image/svg+xml</dc:format>
        <dc:type
           rdf:resource="http://purl.org/dc/dcmitype/StillImage" />
      </cc:Work>
    </rdf:RDF>
  </metadata>
  <sodipodi:namedview
     inkscape:window-height="846"
     inkscape:window-width="804"
     inkscape:pageshadow="2"
     inkscape:pageopacity="0.0"
     guidetolerance="10.0"
     gridtolerance="10.0"
     objecttolerance="10.0"
     borderopacity="1.0"
     bordercolor="#666666"
     pagecolor="#ffffff"
     id="base"
     showgrid="false"
     inkscape:zoom="0.90666667"
     inkscape:cx="294.11581"
     inkscape:cy="261.62959"
     inkscape:window-x="0"
     inkscape:window-y="26"
     inkscape:current-layer="svg2"
     inkscape:window-maximized="0" />
  <defs
     id="defs4">
    <inkscape:perspective
       sodipodi:type="inkscape:persp3d"
       inkscape:vp_x="0 : 250 : 1"
       inkscape:vp_y="0 : 1000 : 0"
       inkscape:vp_z="600 : 250 : 1"
       inkscape:persp3d-origin="300 : 166.66667 : 1"
       id="perspective50" />
    <linearGradient
       id="g1"
       x1="41.194874"
       y1="616.47717"
       x2="118.93135"
       y2="527.55511"
       gradientUnits="userSpaceOnUse"
       gradientTransform="matrix(1.0829072,0,0,-1.0163831,13.405702,660.17477)">
      <stop
         offset="0"
         stop-color="#267F00"
         id="stop7" />
      <stop
         offset="1"
         stop-color="#007F0E"
         id="stop9" />
    </linearGradient>
    <linearGradient
       id="g2"
       x1="530.80951"
       y1="486.63101"
       x2="174.80548"
       y2="211.22995"
       gradientUnits="userSpaceOnUse"
       gradientTransform="matrix(0.22814384,0,0,0.2261243,7.2703703,12.725705)">
      <stop
         offset="0"
         stop-color="#267F00"
         id="stop12" />
      <stop
         offset="1"
         stop-color="#14AF00"
         id="stop14" />
    </linearGradient>
    <linearGradient
       id="g3"
       x1="187.87357"
       y1="224.59892"
       x2="581.83746"
       y2="483.10001"
       gradientUnits="userSpaceOnUse"
       gradientTransform="matrix(0.22814384,0,0,0.22612431,7.2703703,12.725705)">
      <stop
         offset="0"
         stop-color="#6AE038"
         id="stop17" />
      <stop
         offset="1"
         stop-color="#3BBC27"
         id="stop19" />
    </linearGradient>
    <linearGradient
       id="g4"
       x1="250.39845"
       y1="101.53633"
       x2="412.0943"
       y2="264.54187"
       gradientUnits="userSpaceOnUse"
       gradientTransform="matrix(0.22814384,0,0,0.2261243,7.2703703,12.725705)">
      <stop
         offset="0"
         stop-color="#B9EAB9"
         id="stop22" />
      <stop
         offset="1"
         stop-color="#50D841"
         id="stop24" />
    </linearGradient>
    <radialGradient
       id="g5"
       cx="295.47125"
       cy="186.09634"
       r="179.55"
       gradientUnits="userSpaceOnUse"
       gradientTransform="matrix(0,0.3606792,-0.20829973,-5.10182e-6,114.4659,-47.288695)">
      <stop
         offset="0"
         stop-color="#fff"
         id="stop27" />
      <stop
         offset="0.5"
         stop-color="#fff"
         id="stop29" />
      <stop
         offset="1"
         stop-color="#d5d5d5"
         id="stop31" />
    </radialGradient>
    <inkscape:perspective
       id="perspective2439"
       inkscape:persp3d-origin="350 : 204.16667 : 1"
       inkscape:vp_z="700 : 306.25 : 1"
       inkscape:vp_y="0 : 1000 : 0"
       inkscape:vp_x="0 : 306.25 : 1"
       sodipodi:type="inkscape:persp3d" />
  </defs>
  <path
     d="m 72.709977,17.647895 c 0,0 -61.826956,100.625275 -61.826956,100.625275 -1.1863497,1.92207 -1.1863497,4.29636 0,6.21842 1.163534,1.89944 3.353712,3.09791 5.726408,3.09791 l 123.653921,0 c 2.34987,0 4.54005,-1.19847 5.7264,-3.09791 1.16352,-1.92206 1.16352,-4.29635 0,-6.21842 L 84.162799,17.647895 c -1.186344,-1.92206 -3.376531,-3.12052 -5.726423,-3.12052 -2.349869,0 -4.540058,1.19846 -5.726399,3.12052 z"
     style="fill-opacity:0.17857104"
     id="path33"
     inkscape:connector-curvature="0" />
  <path
     d="m 69.987097,15.846215 c 0,0 -61.8269667,100.625275 -61.8269667,100.625275 -1.186348,1.92206 -1.186348,4.29638 0,6.21843 1.163533,1.89944 3.3537127,3.09791 5.7264077,3.09791 l 123.653902,0 c 2.34989,0 4.54006,-1.19847 5.72642,-3.09791 1.16354,-1.92205 1.16354,-4.29637 0,-6.21843 L 81.439893,15.846215 c -1.186338,-1.92205 -3.376511,-3.12051 -5.726395,-3.12051 -2.349893,0 -4.54006,1.19846 -5.726401,3.12051 z"
     style="fill:url(#g1)"
     id="path35"
     inkscape:connector-curvature="0" />
  <path
     d="m 75.713498,17.903945 c -0.387845,0 -0.752872,0.20352 -0.9582,0.52009 L 43.841811,68.736685 12.928335,119.04932 c -0.205331,0.31657 -0.205331,0.72359 0,1.04016 0.205328,0.31657 0.570358,0.52008 0.958203,0.52008 l 123.653902,0 c 0.38785,0 0.75287,-0.20351 0.95822,-0.52008 0.20534,-0.31657 0.20534,-0.72359 0,-1.04016 L 76.67169,18.424035 c -0.205323,-0.31657 -0.570351,-0.52009 -0.958192,-0.52009 z"
     style="fill:url(#g2)"
     id="path37"
     inkscape:connector-curvature="0" />
  <path
     d="m 75.704937,17.903945 c -0.387839,0 -0.752891,0.20352 -0.958218,0.52009 l -30.913465,50.31265 -30.91348,50.312635 c -0.20533,0.31657 -0.20533,0.72359 0,1.04016 0.205329,0.31657 0.570359,0.52008 0.958204,0.52008 l 123.653902,0 c 0.38785,0 0.75288,-0.20351 0.95821,-0.52008 0.20533,-0.31657 0.20533,-0.72359 0,-1.04016 L 76.663136,18.424035 c -0.205323,-0.31657 -0.570351,-0.52009 -0.958199,-0.52009 z"
     style="fill:none;stroke:url(#g3);stroke-width:2.7255652;stroke-linejoin:round"
     id="path39"
     inkscape:connector-curvature="0" />
  <path
     d="m 75.729894,19.716095 c -0.367334,0.018 -0.709738,0.22118 -0.905441,0.52291 l -30.913487,50.31264 -4.306212,7.00986 c 10.48842,6.24028 22.760247,9.8364 35.875608,9.8364 13.301602,0 25.739038,-3.69276 36.324758,-10.09785 L 76.742277,20.239005 c -0.205332,-0.31657 -0.567503,-0.52291 -0.955344,-0.52291 -0.01819,0 -0.03894,-9.1e-4 -0.05705,0 z"
     style="fill:url(#g4);stroke-width:10;stroke-linejoin:round"
     id="path41"
     inkscape:connector-curvature="0" />
  <path
     d="M 72.565131,44.744905 35.217979,105.5045 c -0.638798,1.06281 -0.638798,2.37432 0,3.41449 0.638823,1.06277 1.847978,1.71855 3.148389,1.71855 l 74.671482,0 c 1.30041,0 2.50959,-0.65578 3.14839,-1.71855 0.6388,-1.06278 0.6388,-2.35168 0,-3.41449 L 78.86191,44.744905 c -0.6388,-1.06278 -1.847982,-1.71854 -3.148389,-1.71854 -1.300414,0 -2.509592,0.65576 -3.14839,1.71854 z"
     style="fill:url(#g5)"
     id="path43"
     inkscape:connector-curvature="0" />
  <g
     id="g2442"
     transform="matrix(0.23764835,0,0,0.23554468,-33.154166,-18.404915)">
    <g
       id="g2456"
       transform="matrix(0.6952148,0,0,0.6952148,206.77686,173.75844)">
      <path
         d="m 590.3589,519.1232 -245.6152,0.3158 c -2.2248,-0.2008 -3.8363,-0.7083 -2.994,-3.3628 l 90.2505,-115.6881 c 3.1212,-4.4233 7.8301,-6.815 12.5675,-6.679 l 45.3513,-0.0968 c 7.3551,-0.003 10.1913,2.1257 14.2385,7.2074 l 88.3754,114.1202 c 0.8088,2.0078 0.0841,4.0156 -2.174,4.1833 z"
         style="font-size:12px;fill-rule:evenodd"
         id="path633"
         inkscape:connector-curvature="0" />
      <rect
         width="62.141712"
         height="124.68411"
         rx="11.204549"
         ry="11.816922"
         x="401.59204"
         y="86.919151"
         transform="matrix(0.885449,0.464736,-0.408053,0.912958,0,0)"
         style="font-size:12px;fill:#000002;fill-rule:evenodd"
         id="rect613" />
      <rect
         width="100.00001"
         height="32.5"
         rx="9.4117651"
         ry="8"
         x="266.61417"
         y="268.59387"
         style="font-size:12px;fill-rule:evenodd"
         id="rect615" />
      <rect
         width="93.191818"
         height="27.643017"
         rx="8.770997"
         ry="6.8044353"
         x="-111.08447"
         y="374.94836"
         transform="matrix(0.46869,-0.883363,0.744635,0.667472,0,0)"
         style="font-size:12px;fill-rule:evenodd"
         id="rect616" />
      <rect
         width="292.53391"
         height="15.505924"
         rx="27.532602"
         ry="3.8168428"
         x="361.49655"
         y="184.73489"
         transform="matrix(0.884585,0.466378,-0.436681,0.899616,0,0)"
         style="font-size:12px;fill-rule:evenodd"
         id="rect617" />
      <rect
         width="134.95171"
         height="27.030939"
         rx="12.701341"
         ry="6.6537695"
         x="-440.25488"
         y="335.38721"
         transform="matrix(-0.05720584,-0.9983624,0.9970356,-0.0769422,0,0)"
         style="font-size:12px;fill-rule:evenodd"
         id="rect618" />
      <ellipse
         sodipodi:ry="32.5"
         sodipodi:rx="31.25"
         sodipodi:cy="467.36218"
         sodipodi:cx="418.75"
         cx="418.75"
         cy="467.36218"
         rx="31.25"
         ry="32.5"
         transform="matrix(0.957573,0,0,0.972804,-15.17769,-201.0577)"
         style="font-size:12px;fill-rule:evenodd;stroke-width:1"
         id="path619"
         d="m 450,467.36218 c 0,17.94926 -13.9911,32.5 -31.25,32.5 -17.2589,0 -31.25,-14.55074 -31.25,-32.5 0,-17.94925 13.9911,-32.5 31.25,-32.5 17.2589,0 31.25,14.55075 31.25,32.5 z" />
      <rect
         width="78.066292"
         height="31.23612"
         rx="7.3474154"
         ry="7.6888919"
         x="-504.1214"
         y="192.69527"
         transform="matrix(-0.234008,-0.972235,0.985645,-0.16883,0,0)"
         style="font-size:12px;fill-rule:evenodd"
         id="rect621" />
      <rect
         width="78.240173"
         height="31.245829"
         rx="7.3637805"
         ry="7.6912823"
         x="-494.04901"
         y="303.84488"
         transform="matrix(-0.00756986,-0.999971,0.997034,0.07696708,0,0)"
         style="font-size:12px;fill-rule:evenodd"
         id="rect622" />
      <rect
         width="156.70586"
         height="31.953196"
         rx="14.748788"
         ry="7.8654032"
         x="-296.65436"
         y="424.44891"
         transform="matrix(0.494708,-0.869059,0.817867,0.575407,0,0)"
         style="font-size:12px;fill-rule:evenodd"
         id="rect623" />
    </g>
  </g>
</svg>
