CaseID, patient_id,provider_id,description,referrer_id,attorney_id,primary_insurance_carrier_id,secondary_insurance_carrier_id,primary_guarantor_contact_id,secondary_guarantor_contact_id,primary_insurance_carrier_group_uid,secondary_insurance_carrier_group_uid,primary_insurance_carrier_policy_uid,secondary_insurance_carrier_policy_uid,hcfa_1a_primary,hcfa_1a_secondary,relationship_to_primary_guarantor,relationship_to_secondary_guarantor,primary_insurance_carrier_assignment,secondary_insurance_carrier_assignment,should_hold_primary_bill,should_hold_secondary_bill,secondary_max_pay_per_visit_cents,primary_max_pay_per_year_cents,primary_deductible_cents,primary__cents,SimilarSymptomsDate,EmploymentRelatedYesNo,AutoAccidentYesNo,NonAutoAccidentYesNo,OnsetDate,PriorAuthorization,FirstTreatmentDate,accident_date,hcfa_accident_state,hcfa_box19_accident_description,diagnosis1_id,diagnosis2_id,diagnosis3_id,diagnosis4_id,diagnosis1_description,diagnosis2_description,diagnosis3_description,diagnosis4_description,TreatmentPhase,fee_schedule_id,notes,primary_authorization_through_date,is_active
30,'AIKE94179',13,AIKE94179,6R,,630,0,AIKE94179,AIKE94179,100643,,,,,,S,M,False,False,,,1000,100000,0,0,,False,False,False,05.01.12,,05.12.12,,,,100,164,16,0,Low Back Pain,Myospasm,Cervicalgia,,,1,,,0
2980,'MADA96293',13,MADA96293 - Case 1,67,,335,0,MADA96293,MADA96293,,,,,123456789a,,S,S,False,False,,,0,100000,0,0,,False,False,False,10.28.10,,10.29.10,,,,42,16,0,0,Segmental Somatic Dysf. Head,Cervicalgia,,,,2,,,0
