ThirdPartyID,YourCode,ThirdParty,ThirdParty Type,addr1,addr2,city,state,zip,Phone,Fax,Comment,Attention,Doctor ID,Payor_ID,Sub_ID,Practice_ID,EbiilType,LegacyID,MedigapCode,PlanName
242,GEICO,Geico,2,PO Box 116,750 Woodbury Road,Woodbury,NY,11797,(516) 496-5773,,,P. Gerkin,7,,,,1,,,
335,MEDICARE,Blue Cross & Blue Shield Of N.Y.,4,PO 429,,Yorktown Hghts,NY,10598,(914) 243-7536,,,,2,06111,,,4,,,Medicare Plam B
423,OXFORD5032,Oxford Freedom Plan,0,P.O. Box 5032,,Norwalk,CT,06856,(800) 444-6222,,,,5,,,,1,,,
529,TEMP,,0,,,,,,,,used when the carrier is not known,,1,,,,99,,,
630,UNIHEALTH,United Health,0,PO Box 22026,,New York,NY,12201,(800) 214-1736,,,,1,,,,1,,,
5012,GROSSMAN,Marvin Grossman,14,325 Broadway,,New York,NY,10013,(212) 233-3905,,Fax number (212) 233-3906,,,,,,,,,
5038,VIRAG,Virag & Virag,14,225 Broadway; Suite 605,,New York,NY,10007,,,,Mark Virag,,,,,,,,
